FinalProject/HDLFinalProject.sim/sim_1/behav/xsim/dump.vcd
$date
   Thu Apr 27 20:28:29 2023
$end
$version
  2022.2
$end
$timescale
  1ps
$end
$scope module top $end
$var reg 256 ! InstructDataOut [255:0] $end
$var reg 256 " MemDataOut [255:0] $end
$var reg 256 # ExeDataOut [255:0] $end
$var reg 256 $ IntDataOut [255:0] $end
$var reg 256 % MatrixDataOut [255:0] $end
$var reg 1 & nRead $end
$var reg 1 ' nWrite $end
$var reg 1 ( nReset $end
$var reg 1 ) Clk $end
$var reg 16 * address [15:0] $end
$var reg 1 + Fail $end
$upscope $end
$enddefinitions $end
#0
$dumpvars
b0xxxxxxxxxxxxxxxxxxxxxxxxxxxxxxxx !
bx "
bx #
bx $
bx %
0&
1'
1(
0)
b1000000000000 *
0+
$end
#5000
b0 !
b0 "
b0 #
b0 $
b0 %
0(
1)
#10000
b11000000100000000000000001 !
0&
1'
1(
0)
b1000000000000 *
#15000
1&
1'
1)
b101000000000000 *
#20000
0)
#25000
1)
#30000
0)
#35000
0&
1'
1)
b0 *
#40000
b1000000000000000110000000000000010000000000000000110000000000000110000000000000100000000000000001101000000000000100100000000000010100000000000001001000000000000010100000000000011010000000000001100000000000000001100000000000010100000000000000110 "
0&
1'
0)
b0 *
#45000
1&
1'
1)
b100000000000000 *
#50000
0)
#55000
0&
1'
1)
b1 *
#60000
b11000000000000010000000000000001110000000000001000000000000000011100000000000010000000000000001110000000000000011100000000000100000000000000001001000000000000110000000000000010110000000000001100000000000000010100000000000001010000000000000110 "
0&
1'
0)
b1 *
#65000
1&
1'
1)
b100000000000001 *
#70000
0)
#75000
b1000000000000000110000000000000010000000000000000110000000000000110000000000000100000000000000001101000000000000100100000000000010100000000000001001000000000000010100000000000011010000000000001100000000000000001100000000000010100000000000000110 #
1&
0'
1)
b10000000000000 *
#80000
0)
#85000
1&
1'
1)
b101000000000000 *
#90000
0)
#95000
b11000000000000010000000000000001110000000000001000000000000000011100000000000010000000000000001110000000000000011100000000000100000000000000001001000000000000110000000000000010110000000000001100000000000000010100000000000001010000000000000110 #
1&
0'
1)
b10000000000001 *
#100000
0)
#105000
1&
1'
1)
b101000000000001 *
#110000
0)
#115000
b11 #
1&
0'
1)
b10000000000011 *
#120000
0)
#125000
0&
1'
1)
#130000
b1011000000000001000000000000000011110000000000001110000000000001001100000000000110000000000000011011000000000001000000000000000110100000000000010010000000000001000100000000000110000000000000011000000000000000100000000000000011110000000000001100 %
0&
1'
0)
#135000
1&
1'
1)
#140000
0)
#145000
b1011000000000001000000000000000011110000000000001110000000000001001100000000000110000000000000011011000000000001000000000000000110100000000000010010000000000001000100000000000110000000000000011000000000000000100000000000000011110000000000001100 #
1&
0'
1)
b10 *
#150000
0)
#155000
1&
1'
1)
b101000000000000 *
#160000
0)
#165000
0&
1'
1)
b1000000000001 *
#170000
b10000000100000000101000001011 !
0&
1'
0)
b1000000000001 *
#175000
1&
1'
1)
b101000000000001 *
#180000
0)
#185000
1)
#190000
0)
#195000
0&
1'
1)
b1010 *
#200000
b110 "
0&
1'
0)
b1010 *
#205000
1&
1'
1)
b100000000001010 *
#210000
0)
#215000
0&
1'
1)
b1011 *
#220000
b1101 "
0&
1'
0)
b1011 *
#225000
1&
1'
1)
b100000000000001 *
#230000
0)
#235000
b110 #
1&
0'
1)
b11000000000000 *
#240000
0)
#245000
1&
1'
1)
b101000000000000 *
#250000
0)
#255000
b1101 #
1&
0'
1)
b11000000000001 *
#260000
0)
#265000
1&
1'
1)
b101000000000001 *
#270000
0)
#275000
b10000 #
1&
0'
1)
b11000000000011 *
#280000
0)
#285000
0&
1'
1)
#290000
b10011 $
0&
1'
0)
#295000
1&
1'
1)
#300000
0)
#305000
b10011 #
1&
0'
1)
b100000000000000 *
#310000
0)
#315000
1&
1'
1)
b101000000000000 *
#320000
0)
#325000
0&
1'
1)
b1000000000010 *
#330000
b100000000110000001000000000 !
0&
1'
0)
b1000000000010 *
#335000
1&
1'
1)
b101000000000010 *
#340000
0)
#345000
1)
#350000
0)
#355000
0&
1'
1)
b10 *
#360000
b1011000000000001000000000000000011110000000000001110000000000001001100000000000110000000000000011011000000000001000000000000000110100000000000010010000000000001000100000000000110000000000000011000000000000000100000000000000011110000000000001100 "
0&
1'
0)
b10 *
#365000
1&
1'
1)
b100000000000010 *
#370000
0)
#375000
0&
1'
1)
b0 *
#380000
b1000000000000000110000000000000010000000000000000110000000000000110000000000000100000000000000001101000000000000100100000000000010100000000000001001000000000000010100000000000011010000000000001100000000000000001100000000000010100000000000000110 "
0&
1'
0)
b0 *
#385000
1&
1'
1)
b100000000000001 *
#390000
0)
#395000
b1011000000000001000000000000000011110000000000001110000000000001001100000000000110000000000000011011000000000001000000000000000110100000000000010010000000000001000100000000000110000000000000011000000000000000100000000000000011110000000000001100 #
1&
0'
1)
b10000000000000 *
#400000
0)
#405000
1&
1'
1)
b101000000000000 *
#410000
0)
#415000
b1000000000000000110000000000000010000000000000000110000000000000110000000000000100000000000000001101000000000000100100000000000010100000000000001001000000000000010100000000000011010000000000001100000000000000001100000000000010100000000000000110 #
1&
0'
1)
b10000000000001 *
#420000
0)
#425000
1&
1'
1)
b101000000000001 *
#430000
0)
#435000
b100 #
1&
0'
1)
b10000000000011 *
#440000
0)
#445000
0&
1'
1)
#450000
b11000000000000010000000000000001110000000000001000000000000000011100000000000010000000000000001110000000000000011100000000000100000000000000001001000000000000110000000000000010110000000000001100000000000000010100000000000001010000000000000110 %
0&
1'
0)
#455000
1&
1'
1)
#460000
0)
#465000
b11000000000000010000000000000001110000000000001000000000000000011100000000000010000000000000001110000000000000011100000000000100000000000000001001000000000000110000000000000010110000000000001100000000000000010100000000000001010000000000000110 #
1&
0'
1)
b11 *
#470000
0)
#475000
1&
1'
1)
b101000000000000 *
#480000
0)
#485000
0&
1'
1)
b1000000000011 *
#490000
b101000001000000001000000000 !
0&
1'
0)
b1000000000011 *
#495000
1&
1'
1)
b101000000000011 *
#500000
0)
#505000
1)
#510000
0)
#515000
0&
1'
1)
b10 *
#520000
b1011000000000001000000000000000011110000000000001110000000000001001100000000000110000000000000011011000000000001000000000000000110100000000000010010000000000001000100000000000110000000000000011000000000000000100000000000000011110000000000001100 "
0&
1'
0)
b10 *
#525000
1&
1'
1)
b100000000000010 *
#530000
0)
#535000
0&
1'
1)
b0 *
#540000
b1000000000000000110000000000000010000000000000000110000000000000110000000000000100000000000000001101000000000000100100000000000010100000000000001001000000000000010100000000000011010000000000001100000000000000001100000000000010100000000000000110 "
0&
1'
0)
b0 *
#545000
1&
1'
1)
b100000000000001 *
#550000
0)
#555000
b1011000000000001000000000000000011110000000000001110000000000001001100000000000110000000000000011011000000000001000000000000000110100000000000010010000000000001000100000000000110000000000000011000000000000000100000000000000011110000000000001100 #
1&
0'
1)
b10000000000000 *
#560000
0)
#565000
1&
1'
1)
b101000000000000 *
#570000
0)
#575000
b1000000000000000110000000000000010000000000000000110000000000000110000000000000100000000000000001101000000000000100100000000000010100000000000001001000000000000010100000000000011010000000000001100000000000000001100000000000010100000000000000110 #
1&
0'
1)
b10000000000001 *
#580000
0)
#585000
1&
1'
1)
b101000000000001 *
#590000
0)
#595000
b101 #
1&
0'
1)
b10000000000011 *
#600000
0)
#605000
0&
1'
1)
#610000
b1011000000000001001100000000000110100000000000011000000000000001000000000000000110000000000000010010000000000000100000000000000011110000000000011011000000000001000100000000000011110000000000001110000000000001000000000000000110000000000000001100 %
0&
1'
0)
#615000
1&
1'
1)
#620000
0)
#625000
b1011000000000001001100000000000110100000000000011000000000000001000000000000000110000000000000010010000000000000100000000000000011110000000000011011000000000001000100000000000011110000000000001110000000000001000000000000000110000000000000001100 #
1&
0'
1)
b100 *
#630000
0)
#635000
1&
1'
1)
b101000000000000 *
#640000
0)
#645000
0&
1'
1)
b1000000000100 *
#650000
b111000100010000001100010000 !
0&
1'
0)
b1000000000100 *
#655000
1&
1'
1)
b101000000000100 *
#660000
0)
#665000
1)
#670000
0)
#675000
0&
1'
1)
b11 *
#680000
b11000000000000010000000000000001110000000000001000000000000000011100000000000010000000000000001110000000000000011100000000000100000000000000001001000000000000110000000000000010110000000000001100000000000000010100000000000001010000000000000110 "
0&
1'
0)
b11 *
#685000
1&
1'
1)
b100000000000011 *
#690000
0)
#695000
1&
0'
1)
b100000000000001 *
#700000
0)
#705000
b11000000000000010000000000000001110000000000001000000000000000011100000000000010000000000000001110000000000000011100000000000100000000000000001001000000000000110000000000000010110000000000001100000000000000010100000000000001010000000000000110 #
1&
0'
1)
b10000000000000 *
#710000
0)
#715000
1&
1'
1)
b101000000000000 *
#720000
0)
#725000
b10011 #
1&
0'
1)
b10000000000001 *
#730000
0)
#735000
1&
1'
1)
b101000000000001 *
#740000
0)
#745000
b111 #
1&
0'
1)
b10000000000011 *
#750000
0)
#755000
0&
1'
1)
#760000
b111001000000000100110000000000100001010000000010011000000000001000010100000000100110000000000100001010000000001000010100000001001100000000000010101011000000001110010000000000110100010000000011100100000000000101111100000000010111110000000001110010 %
0&
1'
0)
#765000
1&
1'
1)
#770000
0)
#775000
b111001000000000100110000000000100001010000000010011000000000001000010100000000100110000000000100001010000000001000010100000001001100000000000010101011000000001110010000000000110100010000000011100100000000000101111100000000010111110000000001110010 #
1&
0'
1)
b100000000000001 *
#780000
0)
#785000
1&
1'
1)
b101000000000000 *
#790000
0)
#795000
0&
1'
1)
b1000000000101 *
#800000
b1010000010000000011 !
0&
1'
0)
b1000000000101 *
#805000
1&
1'
1)
b101000000000101 *
#810000
0)
#815000
1)
#820000
0)
#825000
0&
1'
1)
b100 *
#830000
b1011000000000001001100000000000110100000000000011000000000000001000000000000000110000000000000010010000000000000100000000000000011110000000000011011000000000001000100000000000011110000000000001110000000000001000000000000000110000000000000001100 "
0&
1'
0)
b100 *
#835000
1&
1'
1)
b100000000000100 *
#840000
0)
#845000
0&
1'
1)
b11 *
#850000
b11000000000000010000000000000001110000000000001000000000000000011100000000000010000000000000001110000000000000011100000000000100000000000000001001000000000000110000000000000010110000000000001100000000000000010100000000000001010000000000000110 "
0&
1'
0)
b11 *
#855000
1&
1'
1)
b100000000000001 *
#860000
0)
#865000
b1011000000000001001100000000000110100000000000011000000000000001000000000000000110000000000000010010000000000000100000000000000011110000000000011011000000000001000100000000000011110000000000001110000000000001000000000000000110000000000000001100 #
1&
0'
1)
b10000000000000 *
#870000
0)
#875000
1&
1'
1)
b101000000000000 *
#880000
0)
#885000
b11000000000000010000000000000001110000000000001000000000000000011100000000000010000000000000001110000000000000011100000000000100000000000000001001000000000000110000000000000010110000000000001100000000000000010100000000000001010000000000000110 #
1&
0'
1)
b10000000000001 *
#890000
0)
#895000
1&
1'
1)
b101000000000001 *
#900000
0)
#905000
b0 #
1&
0'
1)
b10000000000011 *
#910000
0)
#915000
0&
1'
1)
#920000
b1101100110000000100010011000000011000001110000001010001011000000100101100000000001110010100000001011000000000000100001111000000010101011100000000111111000000000101111101000000010010010100000001010101010000000011100110000000010100111100000001000110000 %
0&
1'
0)
#925000
1&
1'
1)
#930000
0)
#935000
b1101100110000000100010011000000011000001110000001010001011000000100101100000000001110010100000001011000000000000100001111000000010101011100000000111111000000000101111101000000010010010100000001010101010000000011100110000000010100111100000001000110000 #
1&
0'
1)
b101 *
#940000
0)
#945000
1&
1'
1)
b101000000000000 *
#950000
0)
#955000
0&
1'
1)
b1000000000110 *
#960000
b1000001100000010000000011 !
0&
1'
0)
b1000000000110 *
#965000
1&
1'
1)
b101000000000110 *
#970000
0)
#975000
1)
#980000
0)
#985000
0&
1'
1)
b100 *
#990000
b1011000000000001001100000000000110100000000000011000000000000001000000000000000110000000000000010010000000000000100000000000000011110000000000011011000000000001000100000000000011110000000000001110000000000001000000000000000110000000000000001100 "
0&
1'
0)
b100 *
#995000
1&
1'
1)
b100000000000100 *
#1000000
0)
#1005000
0&
1'
1)
b11 *
#1010000
b11000000000000010000000000000001110000000000001000000000000000011100000000000010000000000000001110000000000000011100000000000100000000000000001001000000000000110000000000000010110000000000001100000000000000010100000000000001010000000000000110 "
0&
1'
0)
b11 *
#1015000
1&
1'
1)
b100000000000001 *
#1020000
0)
#1025000
b1011000000000001001100000000000110100000000000011000000000000001000000000000000110000000000000010010000000000000100000000000000011110000000000011011000000000001000100000000000011110000000000001110000000000001000000000000000110000000000000001100 #
1&
0'
1)
b10000000000000 *
#1030000
0)
#1035000
1&
1'
1)
b101000000000000 *
#1040000
0)
#1045000
b11000000000000010000000000000001110000000000001000000000000000011100000000000010000000000000001110000000000000011100000000000100000000000000001001000000000000110000000000000010110000000000001100000000000000010100000000000001010000000000000110 #
1&
0'
1)
b10000000000001 *
#1050000
0)
#1055000
1&
1'
1)
b101000000000001 *
#1060000
0)
#1065000
b1 #
1&
0'
1)
b10000000000011 *
#1070000
0)
#1075000
0&
1'
1)
#1080000
b1011000000000000010110001000000001101100000000000110101110000000011000000000000000110010100000000100000000000000001111011000000001110001000000000011100100000000010001011100000001000101010000001000010000000000010001010000000001010111000000000101010000 %
0&
1'
0)
#1085000
1&
1'
1)
#1090000
0)
#1095000
b1011000000000000010110001000000001101100000000000110101110000000011000000000000000110010100000000100000000000000001111011000000001110001000000000011100100000000010001011100000001000101010000001000010000000000010001010000000001010111000000000101010000 #
1&
0'
1)
b110 *
#1100000
0)
#1105000
1&
1'
1)
b101000000000000 *
#1110000
0)
#1115000
0&
1'
1)
b1000000000111 *
#1120000
b10000001110000010000000011 !
0&
1'
0)
b1000000000111 *
#1125000
1&
1'
1)
b101000000000111 *
#1130000
0)
#1135000
1)
#1140000
0)
#1145000
0&
1'
1)
b100 *
#1150000
b1011000000000001001100000000000110100000000000011000000000000001000000000000000110000000000000010010000000000000100000000000000011110000000000011011000000000001000100000000000011110000000000001110000000000001000000000000000110000000000000001100 "
0&
1'
0)
b100 *
#1155000
1&
1'
1)
b100000000000100 *
#1160000
0)
#1165000
0&
1'
1)
b11 *
#1170000
b11000000000000010000000000000001110000000000001000000000000000011100000000000010000000000000001110000000000000011100000000000100000000000000001001000000000000110000000000000010110000000000001100000000000000010100000000000001010000000000000110 "
0&
1'
0)
b11 *
#1175000
1&
1'
1)
b100000000000001 *
#1180000
0)
#1185000
b1011000000000001001100000000000110100000000000011000000000000001000000000000000110000000000000010010000000000000100000000000000011110000000000011011000000000001000100000000000011110000000000001110000000000001000000000000000110000000000000001100 #
1&
0'
1)
b10000000000000 *
#1190000
0)
#1195000
1&
1'
1)
b101000000000000 *
#1200000
0)
#1205000
b11000000000000010000000000000001110000000000001000000000000000011100000000000010000000000000001110000000000000011100000000000100000000000000001001000000000000110000000000000010110000000000001100000000000000010100000000000001010000000000000110 #
1&
0'
1)
b10000000000001 *
#1210000
0)
#1215000
1&
1'
1)
b101000000000001 *
#1220000
0)
#1225000
b10 #
1&
0'
1)
b10000000000011 *
#1230000
0)
#1235000
0&
1'
1)
#1240000
b1011111010000000100100101000000010100111100000001000110000 %
0&
1'
0)
#1245000
1&
1'
1)
#1250000
0)
#1255000
b1011111010000000100100101000000010100111100000001000110000 #
1&
0'
1)
b111 *
#1260000
0)
#1265000
1&
1'
1)
b101000000000000 *
#1270000
0)
#1275000
0&
1'
1)
b1000000001000 *
#1280000
b10010000010100000000100000000 !
0&
1'
0)
b1000000001000 *
#1285000
1&
1'
1)
b101000000001000 *
#1290000
0)
#1295000
1)
#1300000
0)
#1305000
0&
1'
1)
b1 *
#1310000
b11000000000000010000000000000001110000000000001000000000000000011100000000000010000000000000001110000000000000011100000000000100000000000000001001000000000000110000000000000010110000000000001100000000000000010100000000000001010000000000000110 "
0)
#1315000
1&
1'
1)
b100000000000001 *
#1320000
0)
#1325000
0&
1'
1)
b0 *
#1330000
b1000000000000000110000000000000010000000000000000110000000000000110000000000000100000000000000001101000000000000100100000000000010100000000000001001000000000000010100000000000011010000000000001100000000000000001100000000000010100000000000000110 "
0&
1'
0)
b0 *
#1335000
1&
1'
1)
b100000000000001 *
#1340000
0)
#1345000
b110 #
1&
0'
1)
b11000000000000 *
#1350000
0)
#1355000
1&
1'
1)
b101000000000000 *
#1360000
0)
#1365000
b110 #
1&
0'
1)
b11000000000001 *
#1370000
0)
#1375000
1&
1'
1)
b101000000000001 *
#1380000
0)
#1385000
b10010 #
1&
0'
1)
b11000000000011 *
#1390000
0)
#1395000
0&
1'
1)
#1400000
b100100 $
0&
1'
0)
#1405000
1&
1'
1)
#1410000
0)
#1415000
b100100 #
1&
0'
1)
b1010 *
#1420000
0)
#1425000
1&
1'
1)
b101000000000000 *
#1430000
0)
#1435000
0&
1'
1)
b1000000001001 *
#1440000
b10001000100100000101000000001 !
0&
1'
0)
b1000000001001 *
#1445000
1&
1'
1)
b101000000001001 *
#1450000
0)
#1455000
1)
#1460000
0)
#1465000
0&
1'
1)
b1010 *
#1470000
b100100 "
0&
1'
0)
b1010 *
#1475000
1&
1'
1)
b100000000001010 *
#1480000
0)
#1485000
0&
1'
1)
b1 *
#1490000
b11000000000000010000000000000001110000000000001000000000000000011100000000000010000000000000001110000000000000011100000000000100000000000000001001000000000000110000000000000010110000000000001100000000000000010100000000000001010000000000000110 "
0&
1'
0)
b1 *
#1495000
1&
1'
1)
b100000000000001 *
#1500000
0)
#1505000
b100100 #
1&
0'
1)
b11000000000000 *
#1510000
0)
#1515000
1&
1'
1)
b101000000000000 *
#1520000
0)
#1525000
b110 #
1&
0'
1)
b11000000000001 *
#1530000
0)
#1535000
1&
1'
1)
b101000000000001 *
#1540000
0)
#1545000
b10001 #
1&
0'
1)
b11000000000011 *
#1550000
0)
#1555000
0&
1'
1)
#1560000
b11110 $
0&
1'
0)
#1565000
1&
1'
1)
#1570000
0)
#1575000
b11110 #
1&
0'
1)
b100000000000010 *
#1580000
0)
#1585000
1&
1'
1)
b101000000000000 *
#1590000
0)
#1595000
0&
1'
1)
b1000000001010 *
#1600000
b10011000010110000101000010010 !
0&
1'
0)
b1000000001010 *
#1605000
1&
1'
1)
b101000000001010 *
#1610000
0)
#1615000
1)
#1620000
0)
#1625000
0&
1'
1)
b1010 *
#1630000
b100100 "
0&
1'
0)
b1010 *
#1635000
1&
1'
1)
b100000000001010 *
#1640000
0)
#1645000
1&
0'
1)
b100000000000001 *
#1650000
0)
#1655000
b100100 #
1&
0'
1)
b11000000000000 *
#1660000
0)
#1665000
1&
1'
1)
b101000000000000 *
#1670000
0)
#1675000
b11110 #
1&
0'
1)
b11000000000001 *
#1680000
0)
#1685000
1&
1'
1)
b101000000000001 *
#1690000
0)
#1695000
b10011 #
1&
0'
1)
b11000000000011 *
#1700000
0)
#1705000
0&
1'
1)
#1710000
b0 $
0&
1'
0)
#1715000
1&
1'
1)
#1720000
0)
#1725000
b0 #
1&
0'
1)
b1011 *
#1730000
0)
#1735000
1&
1'
1)
b101000000000000 *
#1740000
0)
#1745000
0&
1'
1)
b1000000001011 *
#1750000
b11111111000000000000000000000000 !
0&
1'
0)
b1000000001011 *
#1755000
1&
1'
1)
b101000000001011 *
